6/26/2015 4:41:49 PM:  - SNCORP\colwelld- Count - 1

6/26/2015 4:43:23 PM: - SNCORP\colwelld - Count - 1

6/26/2015 4:45:27 PM: - SNCORP\colwelld - Count - 1

6/26/2015 4:46:48 PM: - SNCORP\colwelld - Count - 1

