﻿7/26/2017 6:49:46 PM: 
ENVIRONMENT: Development
ExecutionLocation: Running LastProcessingFinished
SOURCE: .Net SqlClient Data Provider
LogDateTime: 7/26/2017 6:49:46 PM
MESSAGE: Invalid object name 'MIMS_OrderProcessing'.
QUERYSTRING: MIMS_RepToRepTransfer
TARGETSITE: Void OnError(System.Data.SqlClient.SqlException, Boolean, System.Action`1[System.Action])
STACKTRACE:    at System.Data.SqlClient.SqlConnection.OnError(SqlException exception, Boolean breakConnection, Action`1 wrapCloseInAction)
   at System.Data.SqlClient.SqlInternalConnection.OnError(SqlException exception, Boolean breakConnection, Action`1 wrapCloseInAction)
   at System.Data.SqlClient.TdsParser.ThrowExceptionAndWarning(TdsParserStateObject stateObj, Boolean callerHasConnectionLock, Boolean asyncClose)
   at System.Data.SqlClient.TdsParser.TryRun(RunBehavior runBehavior, SqlCommand cmdHandler, SqlDataReader dataStream, BulkCopySimpleResultSet bulkCopyHandler, TdsParserStateObject stateObj, Boolean& dataReady)
   at System.Data.SqlClient.SqlDataReader.TryConsumeMetaData()
   at System.Data.SqlClient.SqlDataReader.get_MetaData()
   at System.Data.SqlClient.SqlCommand.FinishExecuteReader(SqlDataReader ds, RunBehavior runBehavior, String resetOptionsString, Boolean isInternal, Boolean forDescribeParameterEncryption)
   at System.Data.SqlClient.SqlCommand.RunExecuteReaderTds(CommandBehavior cmdBehavior, RunBehavior runBehavior, Boolean returnStream, Boolean async, Int32 timeout, Task& task, Boolean asyncWrite, Boolean inRetry, SqlDataReader ds, Boolean describeParameterEncryptionRequest)
   at System.Data.SqlClient.SqlCommand.RunExecuteReader(CommandBehavior cmdBehavior, RunBehavior runBehavior, Boolean returnStream, String method, TaskCompletionSource`1 completion, Int32 timeout, Task& task, Boolean& usedCache, Boolean asyncWrite, Boolean inRetry)
   at System.Data.SqlClient.SqlCommand.RunExecuteReader(CommandBehavior cmdBehavior, RunBehavior runBehavior, Boolean returnStream, String method)
   at System.Data.SqlClient.SqlCommand.ExecuteReader(CommandBehavior behavior, String method)
   at System.Data.SqlClient.SqlCommand.ExecuteDbDataReader(CommandBehavior behavior)
   at System.Data.Common.DbCommand.System.Data.IDbCommand.ExecuteReader(CommandBehavior behavior)
   at System.Data.Common.DbDataAdapter.FillInternal(DataSet dataset, DataTable[] datatables, Int32 startRecord, Int32 maxRecords, String srcTable, IDbCommand command, CommandBehavior behavior)
   at System.Data.Common.DbDataAdapter.Fill(DataTable[] dataTables, Int32 startRecord, Int32 maxRecords, IDbCommand command, CommandBehavior behavior)
   at System.Data.Common.DbDataAdapter.Fill(DataTable dataTable)
   at MIMS_RepToRepTransfer.SQLUtility.SqlExecuteQuery(String storedProcedureName, Collection`1 parameters) in C:\ConsoleApplications\MIMS_RepToRepTransfer\SQLUtility.cs:line 57
   at MIMS_RepToRepTransfer.Entity.ExportProcessing.GetLastExportProcessingByType(String strProcessingType) in C:\ConsoleApplications\MIMS_RepToRepTransfer\Entity\ExportProcessing.cs:line 145
   at MIMS_RepToRepTransfer.Program.LastProcessingFinished() in C:\ConsoleApplications\MIMS_RepToRepTransfer\Program.cs:line 305
0 - INNER EXCEPTION : is null

7/26/2017 6:52:48 PM: 
ENVIRONMENT: Development
ExecutionLocation: Running LastProcessingFinished
SOURCE: .Net SqlClient Data Provider
LogDateTime: 7/26/2017 6:52:48 PM
MESSAGE: Invalid object name 'MIMS_OrderProcessing'.
QUERYSTRING: MIMS_RepToRepTransfer
TARGETSITE: Void OnError(System.Data.SqlClient.SqlException, Boolean, System.Action`1[System.Action])
STACKTRACE:    at System.Data.SqlClient.SqlConnection.OnError(SqlException exception, Boolean breakConnection, Action`1 wrapCloseInAction)
   at System.Data.SqlClient.SqlInternalConnection.OnError(SqlException exception, Boolean breakConnection, Action`1 wrapCloseInAction)
   at System.Data.SqlClient.TdsParser.ThrowExceptionAndWarning(TdsParserStateObject stateObj, Boolean callerHasConnectionLock, Boolean asyncClose)
   at System.Data.SqlClient.TdsParser.TryRun(RunBehavior runBehavior, SqlCommand cmdHandler, SqlDataReader dataStream, BulkCopySimpleResultSet bulkCopyHandler, TdsParserStateObject stateObj, Boolean& dataReady)
   at System.Data.SqlClient.SqlDataReader.TryConsumeMetaData()
   at System.Data.SqlClient.SqlDataReader.get_MetaData()
   at System.Data.SqlClient.SqlCommand.FinishExecuteReader(SqlDataReader ds, RunBehavior runBehavior, String resetOptionsString, Boolean isInternal, Boolean forDescribeParameterEncryption)
   at System.Data.SqlClient.SqlCommand.RunExecuteReaderTds(CommandBehavior cmdBehavior, RunBehavior runBehavior, Boolean returnStream, Boolean async, Int32 timeout, Task& task, Boolean asyncWrite, Boolean inRetry, SqlDataReader ds, Boolean describeParameterEncryptionRequest)
   at System.Data.SqlClient.SqlCommand.RunExecuteReader(CommandBehavior cmdBehavior, RunBehavior runBehavior, Boolean returnStream, String method, TaskCompletionSource`1 completion, Int32 timeout, Task& task, Boolean& usedCache, Boolean asyncWrite, Boolean inRetry)
   at System.Data.SqlClient.SqlCommand.RunExecuteReader(CommandBehavior cmdBehavior, RunBehavior runBehavior, Boolean returnStream, String method)
   at System.Data.SqlClient.SqlCommand.ExecuteReader(CommandBehavior behavior, String method)
   at System.Data.SqlClient.SqlCommand.ExecuteDbDataReader(CommandBehavior behavior)
   at System.Data.Common.DbCommand.System.Data.IDbCommand.ExecuteReader(CommandBehavior behavior)
   at System.Data.Common.DbDataAdapter.FillInternal(DataSet dataset, DataTable[] datatables, Int32 startRecord, Int32 maxRecords, String srcTable, IDbCommand command, CommandBehavior behavior)
   at System.Data.Common.DbDataAdapter.Fill(DataTable[] dataTables, Int32 startRecord, Int32 maxRecords, IDbCommand command, CommandBehavior behavior)
   at System.Data.Common.DbDataAdapter.Fill(DataTable dataTable)
   at MIMS_RepToRepTransfer.SQLUtility.SqlExecuteQuery(String storedProcedureName, Collection`1 parameters) in C:\ConsoleApplications\MIMS_RepToRepTransfer\SQLUtility.cs:line 57
   at MIMS_RepToRepTransfer.Entity.ExportProcessing.GetLastExportProcessingByType(String strProcessingType) in C:\ConsoleApplications\MIMS_RepToRepTransfer\Entity\ExportProcessing.cs:line 145
   at MIMS_RepToRepTransfer.Program.LastProcessingFinished() in C:\ConsoleApplications\MIMS_RepToRepTransfer\Program.cs:line 305
0 - INNER EXCEPTION : is null

8/3/2017 12:06:38 PM: 
ENVIRONMENT: Development
ExecutionLocation: Executing ProcessTransferLinesByTransferLineID 
SOURCE: .Net SqlClient Data Provider
LogDateTime: 8/3/2017 12:06:38 PM
MESSAGE: Procedure or function 'sp_GetApprovedUnProcessedTranferLinesByTransferLineID' expects parameter '@TransferLineID', which was not supplied.
QUERYSTRING: MIMS_RepToRepTransfer
TARGETSITE: Void OnError(System.Data.SqlClient.SqlException, Boolean, System.Action`1[System.Action])
STACKTRACE:    at System.Data.SqlClient.SqlConnection.OnError(SqlException exception, Boolean breakConnection, Action`1 wrapCloseInAction)
   at System.Data.SqlClient.SqlInternalConnection.OnError(SqlException exception, Boolean breakConnection, Action`1 wrapCloseInAction)
   at System.Data.SqlClient.TdsParser.ThrowExceptionAndWarning(TdsParserStateObject stateObj, Boolean callerHasConnectionLock, Boolean asyncClose)
   at System.Data.SqlClient.TdsParser.TryRun(RunBehavior runBehavior, SqlCommand cmdHandler, SqlDataReader dataStream, BulkCopySimpleResultSet bulkCopyHandler, TdsParserStateObject stateObj, Boolean& dataReady)
   at System.Data.SqlClient.SqlDataReader.TryConsumeMetaData()
   at System.Data.SqlClient.SqlDataReader.get_MetaData()
   at System.Data.SqlClient.SqlCommand.FinishExecuteReader(SqlDataReader ds, RunBehavior runBehavior, String resetOptionsString, Boolean isInternal, Boolean forDescribeParameterEncryption)
   at System.Data.SqlClient.SqlCommand.RunExecuteReaderTds(CommandBehavior cmdBehavior, RunBehavior runBehavior, Boolean returnStream, Boolean async, Int32 timeout, Task& task, Boolean asyncWrite, Boolean inRetry, SqlDataReader ds, Boolean describeParameterEncryptionRequest)
   at System.Data.SqlClient.SqlCommand.RunExecuteReader(CommandBehavior cmdBehavior, RunBehavior runBehavior, Boolean returnStream, String method, TaskCompletionSource`1 completion, Int32 timeout, Task& task, Boolean& usedCache, Boolean asyncWrite, Boolean inRetry)
   at System.Data.SqlClient.SqlCommand.RunExecuteReader(CommandBehavior cmdBehavior, RunBehavior runBehavior, Boolean returnStream, String method)
   at System.Data.SqlClient.SqlCommand.ExecuteReader(CommandBehavior behavior, String method)
   at System.Data.SqlClient.SqlCommand.ExecuteDbDataReader(CommandBehavior behavior)
   at System.Data.Common.DbCommand.System.Data.IDbCommand.ExecuteReader(CommandBehavior behavior)
   at System.Data.Common.DbDataAdapter.FillInternal(DataSet dataset, DataTable[] datatables, Int32 startRecord, Int32 maxRecords, String srcTable, IDbCommand command, CommandBehavior behavior)
   at System.Data.Common.DbDataAdapter.Fill(DataTable[] dataTables, Int32 startRecord, Int32 maxRecords, IDbCommand command, CommandBehavior behavior)
   at System.Data.Common.DbDataAdapter.Fill(DataTable dataTable)
   at MIMS_RepToRepTransfer.SQLUtility.SqlExecuteQuery(String storedProcedureName, Collection`1 parameters) in C:\ConsoleApplications\MIMS_RepToRepTransfer\SQLUtility.cs:line 57
   at MIMS_RepToRepTransfer.TransferAccess.GetApprovedUnProcessedTranferLinesByTransferLineID(Int64 intTransferLineID) in C:\ConsoleApplications\MIMS_RepToRepTransfer\TransferAccess.cs:line 50
   at MIMS_RepToRepTransfer.ProcessTransfer.ProcessTransferLinesByTransferLineID(Int64 intTransferLineID) in C:\ConsoleApplications\MIMS_RepToRepTransfer\ProcessTransfer.cs:line 67
0 - INNER EXCEPTION : is null

8/3/2017 12:06:38 PM: 
ENVIRONMENT: Development
ExecutionLocation: Program MAIN method: 
SOURCE: MIMS_RepToRepTransfer
LogDateTime: 8/3/2017 12:06:38 PM
MESSAGE: ProcessTransferLinesByTransferLineID Exception
QUERYSTRING: MIMS_RepToRepTransfer
TARGETSITE: Int32 ProcessTransferLinesByTransferLineID(Int64)
STACKTRACE:    at MIMS_RepToRepTransfer.ProcessTransfer.ProcessTransferLinesByTransferLineID(Int64 intTransferLineID) in C:\ConsoleApplications\MIMS_RepToRepTransfer\ProcessTransfer.cs:line 74
   at MIMS_RepToRepTransfer.Program.Main(String[] args) in C:\ConsoleApplications\MIMS_RepToRepTransfer\Program.cs:line 71
0 - INNER EXCEPTION : is null

