

12/29/2016 9:16:31 AM: 
ENVIRONMENT: Development
SOURCE: NonEmployee
LogDateTime: 12/29/2016 9:16:31 AM
MESSAGE: Object reference not set to an instance of an object.
QUERYSTRING: Non-Employee Web App
TARGETSITE: Void SetJobControls()
STACKTRACE:    at NonEmployee.PersonDetail.SetJobControls() in C:\inetpub\wwwroot\NonEmployee_2\PersonDetail.aspx.cs:line 843
   at NonEmployee.PersonDetail.Page_Load(Object sender, EventArgs e) in C:\inetpub\wwwroot\NonEmployee_2\PersonDetail.aspx.cs:line 139
   at System.Web.UI.Control.OnLoad(EventArgs e)
   at System.Web.UI.Control.LoadRecursive()
   at System.Web.UI.Page.ProcessRequestMain(Boolean includeStagesBeforeAsyncPoint, Boolean includeStagesAfterAsyncPoint)
PAGE: http://o115lcnd5332pz2/NonEmployee/PersonDetail.aspx?NonID=0
USER: SNCORP\colwelld

0 - INNER EXCEPTION : is null

12/29/2016 9:17:56 AM: 
ENVIRONMENT: Development
SOURCE: NonEmployee
LogDateTime: 12/29/2016 9:17:56 AM
MESSAGE: Object reference not set to an instance of an object.
QUERYSTRING: Non-Employee Web App
TARGETSITE: Void SetJobControls()
STACKTRACE:    at NonEmployee.PersonDetail.SetJobControls() in C:\inetpub\wwwroot\NonEmployee_2\PersonDetail.aspx.cs:line 843
   at NonEmployee.PersonDetail.Page_Load(Object sender, EventArgs e) in C:\inetpub\wwwroot\NonEmployee_2\PersonDetail.aspx.cs:line 139
   at System.Web.UI.Control.OnLoad(EventArgs e)
   at System.Web.UI.Control.LoadRecursive()
   at System.Web.UI.Page.ProcessRequestMain(Boolean includeStagesBeforeAsyncPoint, Boolean includeStagesAfterAsyncPoint)
PAGE: http://o115lcnd5332pz2/NonEmployee/PersonDetail.aspx?NonID=0
USER: SNCORP\colwelld

0 - INNER EXCEPTION : is null

12/29/2016 9:22:09 AM: 
ENVIRONMENT: Development
SOURCE: NonEmployee
LogDateTime: 12/29/2016 9:22:09 AM
MESSAGE: Object reference not set to an instance of an object.
QUERYSTRING: Non-Employee Web App
TARGETSITE: Void SetJobControls()
STACKTRACE:    at NonEmployee.PersonDetail.SetJobControls() in C:\inetpub\wwwroot\NonEmployee_2\PersonDetail.aspx.cs:line 843
   at NonEmployee.PersonDetail.Page_Load(Object sender, EventArgs e) in C:\inetpub\wwwroot\NonEmployee_2\PersonDetail.aspx.cs:line 139
   at System.Web.UI.Control.OnLoad(EventArgs e)
   at System.Web.UI.Control.LoadRecursive()
   at System.Web.UI.Page.ProcessRequestMain(Boolean includeStagesBeforeAsyncPoint, Boolean includeStagesAfterAsyncPoint)
PAGE: http://o115lcnd5332pz2/NonEmployee/PersonDetail.aspx?NonID=0
USER: SNCORP\colwelld

0 - INNER EXCEPTION : is null

12/29/2016 9:23:00 AM: 
ENVIRONMENT: Development
SOURCE: NonEmployee
LogDateTime: 12/29/2016 9:23:00 AM
MESSAGE: Object reference not set to an instance of an object.
QUERYSTRING: Non-Employee Web App
TARGETSITE: Void SetJobControls()
STACKTRACE:    at NonEmployee.PersonDetail.SetJobControls() in C:\inetpub\wwwroot\NonEmployee_2\PersonDetail.aspx.cs:line 843
   at NonEmployee.PersonDetail.Page_Load(Object sender, EventArgs e) in C:\inetpub\wwwroot\NonEmployee_2\PersonDetail.aspx.cs:line 139
   at System.Web.UI.Control.OnLoad(EventArgs e)
   at System.Web.UI.Control.LoadRecursive()
   at System.Web.UI.Page.ProcessRequestMain(Boolean includeStagesBeforeAsyncPoint, Boolean includeStagesAfterAsyncPoint)
PAGE: http://localhost/NonEmployee/PersonDetail.aspx
USER: SNCORP\colwelld

0 - INNER EXCEPTION : is null

12/29/2016 9:26:35 AM: 
ENVIRONMENT: Development
SOURCE: NonEmployee
LogDateTime: 12/29/2016 9:26:35 AM
MESSAGE: Object reference not set to an instance of an object.
QUERYSTRING: Non-Employee Web App
TARGETSITE: Void SetJobControls()
STACKTRACE:    at NonEmployee.PersonDetail.SetJobControls() in C:\inetpub\wwwroot\NonEmployee_2\PersonDetail.aspx.cs:line 843
   at NonEmployee.PersonDetail.Page_Load(Object sender, EventArgs e) in C:\inetpub\wwwroot\NonEmployee_2\PersonDetail.aspx.cs:line 139
   at System.Web.UI.Control.OnLoad(EventArgs e)
   at System.Web.UI.Control.LoadRecursive()
   at System.Web.UI.Page.ProcessRequestMain(Boolean includeStagesBeforeAsyncPoint, Boolean includeStagesAfterAsyncPoint)
PAGE: http://localhost/NonEmployee/PersonDetail.aspx?NonID=0
USER: SNCORP\colwelld

0 - INNER EXCEPTION : is null

12/29/2016 9:28:33 AM: 
ENVIRONMENT: Development
SOURCE: NonEmployee
LogDateTime: 12/29/2016 9:28:33 AM
MESSAGE: Object reference not set to an instance of an object.
QUERYSTRING: Non-Employee Web App
TARGETSITE: Void SetJobControls()
STACKTRACE:    at NonEmployee.PersonDetail.SetJobControls() in C:\inetpub\wwwroot\NonEmployee_2\PersonDetail.aspx.cs:line 843
   at NonEmployee.PersonDetail.Page_Load(Object sender, EventArgs e) in C:\inetpub\wwwroot\NonEmployee_2\PersonDetail.aspx.cs:line 139
   at System.Web.UI.Control.OnLoad(EventArgs e)
   at System.Web.UI.Control.LoadRecursive()
   at System.Web.UI.Page.ProcessRequestMain(Boolean includeStagesBeforeAsyncPoint, Boolean includeStagesAfterAsyncPoint)
PAGE: http://localhost/NonEmployee/PersonDetail.aspx
USER: SNCORP\colwelld

0 - INNER EXCEPTION : is null

12/29/2016 9:31:36 AM: 
ENVIRONMENT: Development
SOURCE: NonEmployee
LogDateTime: 12/29/2016 9:31:36 AM
MESSAGE: Object reference not set to an instance of an object.
QUERYSTRING: Non-Employee Web App
TARGETSITE: Void SetJobControls()
STACKTRACE:    at NonEmployee.PersonDetail.SetJobControls() in C:\inetpub\wwwroot\NonEmployee_2\PersonDetail.aspx.cs:line 843
   at NonEmployee.PersonDetail.Page_Load(Object sender, EventArgs e) in C:\inetpub\wwwroot\NonEmployee_2\PersonDetail.aspx.cs:line 139
   at System.Web.UI.Control.OnLoad(EventArgs e)
   at System.Web.UI.Control.LoadRecursive()
   at System.Web.UI.Page.ProcessRequestMain(Boolean includeStagesBeforeAsyncPoint, Boolean includeStagesAfterAsyncPoint)
PAGE: http://localhost/NonEmployee/PersonDetail.aspx
USER: SNCORP\colwelld

0 - INNER EXCEPTION : is null

